﻿||Sütunlar|
Satırlar||İbbs-Düzey1, İbbs-Düzey2,  İl Ve İlçe Nüfusları|
||Ölçüm bazında|
|||
|||
2007|İstanbul(Adalar)-1103|10460.0|
|İstanbul(Avcılar)-2003|323596.0|
|İstanbul(Bağcılar)-2004|719267.0|
|İstanbul(Bahçelievler)-2005|571711.0|
|İstanbul(Bakırköy)-1166|214821.0|
|İstanbul(Bayrampaşa)-1886|272196.0|
|İstanbul(Beşiktaş)-1183|191513.0|
|İstanbul(Beykoz)-1185|241833.0|
|İstanbul(Beyoğlu)-1186|247256.0|
|İstanbul(Büyükçekmece)-1782|688774.0|
|İstanbul(Çatalca)-1237|89158.0|
|İstanbul(Eminönü)-1305|32557.0|
|İstanbul(Esenler)-2016|517235.0|
|İstanbul(Eyüp)-1325|325532.0|
|İstanbul(Fatih)-1327|422941.0|
|İstanbul(Gaziosmanpaşa)-1336|1013048.0|
|İstanbul(Güngören)-2010|318545.0|
|İstanbul(Kadıköy)-1421|744670.0|
|İstanbul(Kağıthane)-1810|418229.0|
|İstanbul(Kartal)-1449|541209.0|
|İstanbul(Küçükçekmece)-1823|785392.0|
|İstanbul(Maltepe)-2012|415117.0|
|İstanbul(Pendik)-1835|520486.0|
|İstanbul(Sarıyer)-1604|276407.0|
|İstanbul(Şile)-1659|25169.0|
|İstanbul(Silivri)-1622|125364.0|
|İstanbul(Şişli)-1663|314684.0|
|İstanbul(Sultanbeyli)-2014|272758.0|
|İstanbul(Tuzla)-2015|165239.0|
|İstanbul(Ümraniye)-1852|897260.0|
|İstanbul(Üsküdar)-1708|582666.0|
|İstanbul(Zeytinburnu)-1739|288743.0|
2008|İstanbul(Adalar)-1103|14072.0|
|İstanbul(Arnavutköy)-2048|163510.0|
|İstanbul(Ataşehir)-2049|351046.0|
|İstanbul(Avcılar)-2003|333944.0|
|İstanbul(Bağcılar)-2004|720819.0|
|İstanbul(Bahçelievler)-2005|571683.0|
|İstanbul(Bakırköy)-1166|214810.0|
|İstanbul(Başakşehir)-2050|207542.0|
|İstanbul(Bayrampaşa)-1886|268276.0|
|İstanbul(Beşiktaş)-1183|185373.0|
|İstanbul(Beykoz)-1185|243454.0|
|İstanbul(Beylikdüzü)-2051|185633.0|
|İstanbul(Beyoğlu)-1186|245064.0|
|İstanbul(Büyükçekmece)-1782|163140.0|
|İstanbul(Çatalca)-1237|62339.0|
|İstanbul(Çekmeköy)-2052|147352.0|
|İstanbul(Esenler)-2016|464557.0|
|İstanbul(Esenyurt)-2053|373017.0|
|İstanbul(Eyüp)-1325|323038.0|
|İstanbul(Fatih)-1327|443955.0|
|İstanbul(Gaziosmanpaşa)-1336|460675.0|
|İstanbul(Güngören)-2010|314271.0|
|İstanbul(Kadıköy)-1421|533452.0|
|İstanbul(Kağıthane)-1810|415130.0|
|İstanbul(Kartal)-1449|426748.0|
|İstanbul(Küçükçekmece)-1823|669081.0|
|İstanbul(Maltepe)-2012|417605.0|
|İstanbul(Pendik)-1835|541619.0|
|İstanbul(Sancaktepe)-2054|229093.0|
|İstanbul(Sarıyer)-1604|277372.0|
|İstanbul(Şile)-1659|28571.0|
|İstanbul(Silivri)-1622|124601.0|
|İstanbul(Şişli)-1663|312666.0|
|İstanbul(Sultanbeyli)-2014|282026.0|
|İstanbul(Sultangazi)-2055|444295.0|
|İstanbul(Tuzla)-2015|170453.0|
|İstanbul(Ümraniye)-1852|553935.0|
|İstanbul(Üsküdar)-1708|524889.0|
|İstanbul(Zeytinburnu)-1739|288058.0|
2009|İstanbul(Adalar)-1103|14341.0|
|İstanbul(Arnavutköy)-2048|175871.0|
|İstanbul(Ataşehir)-2049|361615.0|
|İstanbul(Avcılar)-2003|348635.0|
|İstanbul(Bağcılar)-2004|724268.0|
|İstanbul(Bahçelievler)-2005|576799.0|
|İstanbul(Bakırköy)-1166|218352.0|
|İstanbul(Başakşehir)-2050|226387.0|
|İstanbul(Bayrampaşa)-1886|269425.0|
|İstanbul(Beşiktaş)-1183|185054.0|
|İstanbul(Beykoz)-1185|244137.0|
|İstanbul(Beylikdüzü)-2051|193972.0|
|İstanbul(Beyoğlu)-1186|244516.0|
|İstanbul(Büyükçekmece)-1782|171222.0|
|İstanbul(Çatalca)-1237|63277.0|
|İstanbul(Çekmeköy)-2052|154103.0|
|İstanbul(Esenler)-2016|459980.0|
|İstanbul(Esenyurt)-2053|403895.0|
|İstanbul(Eyüp)-1325|331548.0|
|İstanbul(Fatih)-1327|433796.0|
|İstanbul(Gaziosmanpaşa)-1336|461230.0|
|İstanbul(Güngören)-2010|311672.0|
|İstanbul(Kadıköy)-1421|529191.0|
|İstanbul(Kağıthane)-1810|413797.0|
|İstanbul(Kartal)-1449|426680.0|
|İstanbul(Küçükçekmece)-1823|674795.0|
|İstanbul(Maltepe)-2012|427041.0|
|İstanbul(Pendik)-1835|562122.0|
|İstanbul(Sancaktepe)-2054|241233.0|
|İstanbul(Sarıyer)-1604|278527.0|
|İstanbul(Şile)-1659|28325.0|
|İstanbul(Silivri)-1622|134660.0|
|İstanbul(Şişli)-1663|316058.0|
|İstanbul(Sultanbeyli)-2014|286622.0|
|İstanbul(Sultangazi)-2055|452563.0|
|İstanbul(Tuzla)-2015|181658.0|
|İstanbul(Ümraniye)-1852|573265.0|
|İstanbul(Üsküdar)-1708|524379.0|
|İstanbul(Zeytinburnu)-1739|290147.0|
2010|İstanbul(Adalar)-1103|14221.0|
|İstanbul(Arnavutköy)-2048|188011.0|
|İstanbul(Ataşehir)-2049|375208.0|
|İstanbul(Avcılar)-2003|364682.0|
|İstanbul(Bağcılar)-2004|738809.0|
|İstanbul(Bahçelievler)-2005|590063.0|
|İstanbul(Bakırköy)-1166|219145.0|
|İstanbul(Başakşehir)-2050|248467.0|
|İstanbul(Bayrampaşa)-1886|269481.0|
|İstanbul(Beşiktaş)-1183|184390.0|
|İstanbul(Beykoz)-1185|246136.0|
|İstanbul(Beylikdüzü)-2051|204873.0|
|İstanbul(Beyoğlu)-1186|248084.0|
|İstanbul(Büyükçekmece)-1782|182017.0|
|İstanbul(Çatalca)-1237|62001.0|
|İstanbul(Çekmeköy)-2052|168438.0|
|İstanbul(Esenler)-2016|461072.0|
|İstanbul(Esenyurt)-2053|446777.0|
|İstanbul(Eyüp)-1325|338329.0|
|İstanbul(Fatih)-1327|431147.0|
|İstanbul(Gaziosmanpaşa)-1336|474259.0|
|İstanbul(Güngören)-2010|309624.0|
|İstanbul(Kadıköy)-1421|532835.0|
|İstanbul(Kağıthane)-1810|416515.0|
|İstanbul(Kartal)-1449|432199.0|
|İstanbul(Küçükçekmece)-1823|695988.0|
|İstanbul(Maltepe)-2012|438257.0|
|İstanbul(Pendik)-1835|585196.0|
|İstanbul(Sancaktepe)-2054|256442.0|
|İstanbul(Sarıyer)-1604|280802.0|
|İstanbul(Şile)-1659|28119.0|
|İstanbul(Silivri)-1622|138797.0|
|İstanbul(Şişli)-1663|317337.0|
|İstanbul(Sultanbeyli)-2014|291063.0|
|İstanbul(Sultangazi)-2055|468274.0|
|İstanbul(Tuzla)-2015|185819.0|
|İstanbul(Ümraniye)-1852|603431.0|
|İstanbul(Üsküdar)-1708|526947.0|
|İstanbul(Zeytinburnu)-1739|292430.0|
2011|İstanbul(Adalar)-1103|13883.0|
|İstanbul(Arnavutköy)-2048|198230.0|
|İstanbul(Ataşehir)-2049|387502.0|
|İstanbul(Avcılar)-2003|383736.0|
|İstanbul(Bağcılar)-2004|746650.0|
|İstanbul(Bahçelievler)-2005|600900.0|
|İstanbul(Bakırköy)-1166|220663.0|
|İstanbul(Başakşehir)-2050|284488.0|
|İstanbul(Bayrampaşa)-1886|269709.0|
|İstanbul(Beşiktaş)-1183|187053.0|
|İstanbul(Beykoz)-1185|247284.0|
|İstanbul(Beylikdüzü)-2051|218120.0|
|İstanbul(Beyoğlu)-1186|248206.0|
|İstanbul(Büyükçekmece)-1782|192843.0|
|İstanbul(Çatalca)-1237|63379.0|
|İstanbul(Çekmeköy)-2052|183013.0|
|İstanbul(Esenler)-2016|461382.0|
|İstanbul(Esenyurt)-2053|500027.0|
|İstanbul(Eyüp)-1325|345790.0|
|İstanbul(Fatih)-1327|429351.0|
|İstanbul(Gaziosmanpaşa)-1336|482553.0|
|İstanbul(Güngören)-2010|309135.0|
|İstanbul(Kadıköy)-1421|531997.0|
|İstanbul(Kağıthane)-1810|419865.0|
|İstanbul(Kartal)-1449|440887.0|
|İstanbul(Küçükçekmece)-1823|711112.0|
|İstanbul(Maltepe)-2012|452099.0|
|İstanbul(Pendik)-1835|609535.0|
|İstanbul(Sancaktepe)-2054|267537.0|
|İstanbul(Sarıyer)-1604|287309.0|
|İstanbul(Şile)-1659|28847.0|
|İstanbul(Silivri)-1622|144781.0|
|İstanbul(Şişli)-1663|320763.0|
|İstanbul(Sultanbeyli)-2014|298143.0|
|İstanbul(Sultangazi)-2055|483225.0|
|İstanbul(Tuzla)-2015|197230.0|
|İstanbul(Ümraniye)-1852|631603.0|
|İstanbul(Üsküdar)-1708|532182.0|
|İstanbul(Zeytinburnu)-1739|293228.0|
2012|İstanbul(Adalar)-1103|14552.0|
|İstanbul(Arnavutköy)-2048|206299.0|
|İstanbul(Ataşehir)-2049|395758.0|
|İstanbul(Avcılar)-2003|395274.0|
|İstanbul(Bağcılar)-2004|749024.0|
|İstanbul(Bahçelievler)-2005|600162.0|
|İstanbul(Bakırköy)-1166|221336.0|
|İstanbul(Başakşehir)-2050|316176.0|
|İstanbul(Bayrampaşa)-1886|269774.0|
|İstanbul(Beşiktaş)-1183|186067.0|
|İstanbul(Beykoz)-1185|246352.0|
|İstanbul(Beylikdüzü)-2051|229115.0|
|İstanbul(Beyoğlu)-1186|246152.0|
|İstanbul(Büyükçekmece)-1782|201077.0|
|İstanbul(Çatalca)-1237|63467.0|
|İstanbul(Çekmeköy)-2052|193182.0|
|İstanbul(Esenler)-2016|458694.0|
|İstanbul(Esenyurt)-2053|553369.0|
|İstanbul(Eyüp)-1325|356512.0|
|İstanbul(Fatih)-1327|428857.0|
|İstanbul(Gaziosmanpaşa)-1336|488258.0|
|İstanbul(Güngören)-2010|307573.0|
|İstanbul(Kadıköy)-1421|521005.0|
|İstanbul(Kağıthane)-1810|421356.0|
|İstanbul(Kartal)-1449|443293.0|
|İstanbul(Küçükçekmece)-1823|721911.0|
|İstanbul(Maltepe)-2012|460955.0|
|İstanbul(Pendik)-1835|625797.0|
|İstanbul(Sancaktepe)-2054|278998.0|
|İstanbul(Sarıyer)-1604|289959.0|
|İstanbul(Şile)-1659|30218.0|
|İstanbul(Silivri)-1622|150183.0|
|İstanbul(Şişli)-1663|318217.0|
|İstanbul(Sultanbeyli)-2014|302388.0|
|İstanbul(Sultangazi)-2055|492212.0|
|İstanbul(Tuzla)-2015|197657.0|
|İstanbul(Ümraniye)-1852|645238.0|
|İstanbul(Üsküdar)-1708|535916.0|
|İstanbul(Zeytinburnu)-1739|292407.0|
2013|İstanbul(Adalar)-1103|16166.0|
|İstanbul(Arnavutköy)-2048|215531.0|
|İstanbul(Ataşehir)-2049|405974.0|
|İstanbul(Avcılar)-2003|407240.0|
|İstanbul(Bağcılar)-2004|752250.0|
|İstanbul(Bahçelievler)-2005|602931.0|
|İstanbul(Bakırköy)-1166|220974.0|
|İstanbul(Başakşehir)-2050|333047.0|
|İstanbul(Bayrampaşa)-1886|269677.0|
|İstanbul(Beşiktaş)-1183|186570.0|
|İstanbul(Beykoz)-1185|248056.0|
|İstanbul(Beylikdüzü)-2051|244760.0|
|İstanbul(Beyoğlu)-1186|245219.0|
|İstanbul(Büyükçekmece)-1782|211000.0|
|İstanbul(Çatalca)-1237|65811.0|
|İstanbul(Çekmeköy)-2052|207476.0|
|İstanbul(Esenler)-2016|461621.0|
|İstanbul(Esenyurt)-2053|624733.0|
|İstanbul(Eyüp)-1325|361531.0|
|İstanbul(Fatih)-1327|425875.0|
|İstanbul(Gaziosmanpaşa)-1336|495006.0|
|İstanbul(Güngören)-2010|306854.0|
|İstanbul(Kadıköy)-1421|506293.0|
|İstanbul(Kağıthane)-1810|428755.0|
|İstanbul(Kartal)-1449|447110.0|
|İstanbul(Küçükçekmece)-1823|740090.0|
|İstanbul(Maltepe)-2012|471059.0|
|İstanbul(Pendik)-1835|646375.0|
|İstanbul(Sancaktepe)-2054|304406.0|
|İstanbul(Sarıyer)-1604|335598.0|
|İstanbul(Şile)-1659|31718.0|
|İstanbul(Silivri)-1622|155923.0|
|İstanbul(Şişli)-1663|274420.0|
|İstanbul(Sultanbeyli)-2014|309347.0|
|İstanbul(Sultangazi)-2055|505190.0|
|İstanbul(Tuzla)-2015|208807.0|
|İstanbul(Ümraniye)-1852|660125.0|
|İstanbul(Üsküdar)-1708|534636.0|
|İstanbul(Zeytinburnu)-1739|292313.0|
2014|İstanbul(Adalar)-1103|16052.0|
|İstanbul(Arnavutköy)-2048|225670.0|
|İstanbul(Ataşehir)-2049|408986.0|
|İstanbul(Avcılar)-2003|417852.0|
|İstanbul(Bağcılar)-2004|754623.0|
|İstanbul(Bahçelievler)-2005|599027.0|
|İstanbul(Bakırköy)-1166|221594.0|
|İstanbul(Başakşehir)-2050|342422.0|
|İstanbul(Bayrampaşa)-1886|269809.0|
|İstanbul(Beşiktaş)-1183|188793.0|
|İstanbul(Beykoz)-1185|248071.0|
|İstanbul(Beylikdüzü)-2051|262473.0|
|İstanbul(Beyoğlu)-1186|241520.0|
|İstanbul(Büyükçekmece)-1782|223324.0|
|İstanbul(Çatalca)-1237|67843.0|
|İstanbul(Çekmeköy)-2052|220656.0|
|İstanbul(Esenler)-2016|458857.0|
|İstanbul(Esenyurt)-2053|686968.0|
|İstanbul(Eyüp)-1325|367824.0|
|İstanbul(Fatih)-1327|419266.0|
|İstanbul(Gaziosmanpaşa)-1336|498120.0|
|İstanbul(Güngören)-2010|303371.0|
|İstanbul(Kadıköy)-1421|482571.0|
|İstanbul(Kağıthane)-1810|432230.0|
|İstanbul(Kartal)-1449|450498.0|
|İstanbul(Küçükçekmece)-1823|748398.0|
|İstanbul(Maltepe)-2012|476806.0|
|İstanbul(Pendik)-1835|663569.0|
|İstanbul(Sancaktepe)-2054|329788.0|
|İstanbul(Sarıyer)-1604|337681.0|
|İstanbul(Şile)-1659|32823.0|
|İstanbul(Silivri)-1622|161165.0|
|İstanbul(Şişli)-1663|272380.0|
|İstanbul(Sultanbeyli)-2014|315022.0|
|İstanbul(Sultangazi)-2055|513022.0|
|İstanbul(Tuzla)-2015|221620.0|
|İstanbul(Ümraniye)-1852|674131.0|
|İstanbul(Üsküdar)-1708|534970.0|
|İstanbul(Zeytinburnu)-1739|287223.0|
2015|İstanbul(Adalar)-1103|15623.0|
|İstanbul(Arnavutköy)-2048|236222.0|
|İstanbul(Ataşehir)-2049|419368.0|
|İstanbul(Avcılar)-2003|425228.0|
|İstanbul(Bağcılar)-2004|757162.0|
|İstanbul(Bahçelievler)-2005|602040.0|
|İstanbul(Bakırköy)-1166|223248.0|
|İstanbul(Başakşehir)-2050|353311.0|
|İstanbul(Bayrampaşa)-1886|272374.0|
|İstanbul(Beşiktaş)-1183|190033.0|
|İstanbul(Beykoz)-1185|249727.0|
|İstanbul(Beylikdüzü)-2051|279999.0|
|İstanbul(Beyoğlu)-1186|242250.0|
|İstanbul(Büyükçekmece)-1782|231064.0|
|İstanbul(Çatalca)-1237|67329.0|
|İstanbul(Çekmeköy)-2052|231818.0|
|İstanbul(Esenler)-2016|459983.0|
|İstanbul(Esenyurt)-2053|742810.0|
|İstanbul(Eyüp)-1325|375409.0|
|İstanbul(Fatih)-1327|419345.0|
|İstanbul(Gaziosmanpaşa)-1336|501546.0|
|İstanbul(Güngören)-2010|302066.0|
|İstanbul(Kadıköy)-1421|465954.0|
|İstanbul(Kağıthane)-1810|437942.0|
|İstanbul(Kartal)-1449|457552.0|
|İstanbul(Küçükçekmece)-1823|761064.0|
|İstanbul(Maltepe)-2012|487337.0|
|İstanbul(Pendik)-1835|681736.0|
|İstanbul(Sancaktepe)-2054|354882.0|
|İstanbul(Sarıyer)-1604|344159.0|
|İstanbul(Şile)-1659|33477.0|
|İstanbul(Silivri)-1622|165084.0|
|İstanbul(Şişli)-1663|274017.0|
|İstanbul(Sultanbeyli)-2014|321730.0|
|İstanbul(Sultangazi)-2055|521524.0|
|İstanbul(Tuzla)-2015|234372.0|
|İstanbul(Ümraniye)-1852|688347.0|
|İstanbul(Üsküdar)-1708|540617.0|
|İstanbul(Zeytinburnu)-1739|289685.0|
2016|İstanbul(Adalar)-1103|14478.0|
|İstanbul(Arnavutköy)-2048|247507.0|
|İstanbul(Ataşehir)-2049|422513.0|
|İstanbul(Avcılar)-2003|430770.0|
|İstanbul(Bağcılar)-2004|751510.0|
|İstanbul(Bahçelievler)-2005|598097.0|
|İstanbul(Bakırköy)-1166|222437.0|
|İstanbul(Başakşehir)-2050|369810.0|
|İstanbul(Bayrampaşa)-1886|273148.0|
|İstanbul(Beşiktaş)-1183|189356.0|
|İstanbul(Beykoz)-1185|250410.0|
|İstanbul(Beylikdüzü)-2051|297420.0|
|İstanbul(Beyoğlu)-1186|238762.0|
|İstanbul(Büyükçekmece)-1782|237185.0|
|İstanbul(Çatalca)-1237|68935.0|
|İstanbul(Çekmeköy)-2052|239611.0|
|İstanbul(Esenler)-2016|457231.0|
|İstanbul(Esenyurt)-2053|795010.0|
|İstanbul(Eyüp)-1325|377650.0|
|İstanbul(Fatih)-1327|417285.0|
|İstanbul(Gaziosmanpaşa)-1336|499766.0|
|İstanbul(Güngören)-2010|298509.0|
|İstanbul(Kadıköy)-1421|452302.0|
|İstanbul(Kağıthane)-1810|439685.0|
|İstanbul(Kartal)-1449|459298.0|
|İstanbul(Küçükçekmece)-1823|766609.0|
|İstanbul(Maltepe)-2012|490151.0|
|İstanbul(Pendik)-1835|691681.0|
|İstanbul(Sancaktepe)-2054|377047.0|
|İstanbul(Sarıyer)-1604|342753.0|
|İstanbul(Şile)-1659|34241.0|
|İstanbul(Silivri)-1622|170523.0|
|İstanbul(Şişli)-1663|272803.0|
|İstanbul(Sultanbeyli)-2014|324709.0|
|İstanbul(Sultangazi)-2055|525090.0|
|İstanbul(Tuzla)-2015|242232.0|
|İstanbul(Ümraniye)-1852|694158.0|
|İstanbul(Üsküdar)-1708|535537.0|
|İstanbul(Zeytinburnu)-1739|287897.0|
2017|İstanbul(Adalar)-1103|14907.0|
|İstanbul(Arnavutköy)-2048|261655.0|
|İstanbul(Ataşehir)-2049|423372.0|
|İstanbul(Avcılar)-2003|435682.0|
|İstanbul(Bağcılar)-2004|748483.0|
|İstanbul(Bahçelievler)-2005|598454.0|
|İstanbul(Bakırköy)-1166|222370.0|
|İstanbul(Başakşehir)-2050|396729.0|
|İstanbul(Bayrampaşa)-1886|274197.0|
|İstanbul(Beşiktaş)-1183|185447.0|
|İstanbul(Beykoz)-1185|251087.0|
|İstanbul(Beylikdüzü)-2051|314670.0|
|İstanbul(Beyoğlu)-1186|236606.0|
|İstanbul(Büyükçekmece)-1782|243474.0|
|İstanbul(Çatalca)-1237|69057.0|
|İstanbul(Çekmeköy)-2052|248859.0|
|İstanbul(Esenler)-2016|454569.0|
|İstanbul(Esenyurt)-2053|846492.0|
|İstanbul(Eyüp)-1325|381114.0|
|İstanbul(Fatih)-1327|433873.0|
|İstanbul(Gaziosmanpaşa)-1336|497959.0|
|İstanbul(Güngören)-2010|296967.0|
|İstanbul(Kadıköy)-1421|451453.0|
|İstanbul(Kağıthane)-1810|442694.0|
|İstanbul(Kartal)-1449|463433.0|
|İstanbul(Küçükçekmece)-1823|770393.0|
|İstanbul(Maltepe)-2012|497586.0|
|İstanbul(Pendik)-1835|698260.0|
|İstanbul(Sancaktepe)-2054|402391.0|
|İstanbul(Sarıyer)-1604|344876.0|
|İstanbul(Şile)-1659|35131.0|
|İstanbul(Silivri)-1622|180524.0|
|İstanbul(Şişli)-1663|274196.0|
|İstanbul(Sultanbeyli)-2014|329985.0|
|İstanbul(Sultangazi)-2055|528514.0|
|İstanbul(Tuzla)-2015|252923.0|
|İstanbul(Ümraniye)-1852|699901.0|
|İstanbul(Üsküdar)-1708|533570.0|
|İstanbul(Zeytinburnu)-1739|287378.0|
2018|İstanbul(Adalar)-1103|16119.0|
|İstanbul(Arnavutköy)-2048|270549.0|
|İstanbul(Ataşehir)-2049|416318.0|
|İstanbul(Avcılar)-2003|435625.0|
|İstanbul(Bağcılar)-2004|734369.0|
|İstanbul(Bahçelievler)-2005|594053.0|
|İstanbul(Bakırköy)-1166|222668.0|
|İstanbul(Başakşehir)-2050|427835.0|
|İstanbul(Bayrampaşa)-1886|271073.0|
|İstanbul(Beşiktaş)-1183|181074.0|
|İstanbul(Beykoz)-1185|246700.0|
|İstanbul(Beylikdüzü)-2051|331525.0|
|İstanbul(Beyoğlu)-1186|230526.0|
|İstanbul(Büyükçekmece)-1782|247736.0|
|İstanbul(Çatalca)-1237|72966.0|
|İstanbul(Çekmeköy)-2052|251937.0|
|İstanbul(Esenler)-2016|444561.0|
|İstanbul(Esenyurt)-2053|891120.0|
|İstanbul(Eyüpsultan)-1325|383909.0|
|İstanbul(Fatih)-1327|436539.0|
|İstanbul(Gaziosmanpaşa)-1336|487046.0|
|İstanbul(Güngören)-2010|289331.0|
|İstanbul(Kadıköy)-1421|458638.0|
|İstanbul(Kağıthane)-1810|437026.0|
|İstanbul(Kartal)-1449|461155.0|
|İstanbul(Küçükçekmece)-1823|770317.0|
|İstanbul(Maltepe)-2012|497034.0|
|İstanbul(Pendik)-1835|693599.0|
|İstanbul(Sancaktepe)-2054|414143.0|
|İstanbul(Sarıyer)-1604|342503.0|
|İstanbul(Şile)-1659|36516.0|
|İstanbul(Silivri)-1622|187621.0|
|İstanbul(Şişli)-1663|274289.0|
|İstanbul(Sultanbeyli)-2014|327798.0|
|İstanbul(Sultangazi)-2055|523765.0|
|İstanbul(Tuzla)-2015|255468.0|
|İstanbul(Ümraniye)-1852|690193.0|
|İstanbul(Üsküdar)-1708|529145.0|
|İstanbul(Zeytinburnu)-1739|284935.0|
2019|İstanbul(Adalar)-1103|15238.0|
|İstanbul(Arnavutköy)-2048|282488.0|
|İstanbul(Ataşehir)-2049|425094.0|
|İstanbul(Avcılar)-2003|448882.0|
|İstanbul(Bağcılar)-2004|745125.0|
|İstanbul(Bahçelievler)-2005|611059.0|
|İstanbul(Bakırköy)-1166|229239.0|
|İstanbul(Başakşehir)-2050|460259.0|
|İstanbul(Bayrampaşa)-1886|274735.0|
|İstanbul(Beşiktaş)-1183|182649.0|
|İstanbul(Beykoz)-1185|248260.0|
|İstanbul(Beylikdüzü)-2051|352412.0|
|İstanbul(Beyoğlu)-1186|233323.0|
|İstanbul(Büyükçekmece)-1782|254103.0|
|İstanbul(Çatalca)-1237|73718.0|
|İstanbul(Çekmeköy)-2052|264508.0|
|İstanbul(Esenler)-2016|450344.0|
|İstanbul(Esenyurt)-2053|954579.0|
|İstanbul(Eyüpsultan)-1325|400513.0|
|İstanbul(Fatih)-1327|443090.0|
|İstanbul(Gaziosmanpaşa)-1336|491962.0|
|İstanbul(Güngören)-2010|289441.0|
|İstanbul(Kadıköy)-1421|482713.0|
|İstanbul(Kağıthane)-1810|448025.0|
|İstanbul(Kartal)-1449|470676.0|
|İstanbul(Küçükçekmece)-1823|792821.0|
|İstanbul(Maltepe)-2012|513316.0|
|İstanbul(Pendik)-1835|711894.0|
|İstanbul(Sancaktepe)-2054|436733.0|
|İstanbul(Sarıyer)-1604|347214.0|
|İstanbul(Şile)-1659|37692.0|
|İstanbul(Silivri)-1622|193680.0|
|İstanbul(Şişli)-1663|279817.0|
|İstanbul(Sultanbeyli)-2014|336021.0|
|İstanbul(Sultangazi)-2055|534565.0|
|İstanbul(Tuzla)-2015|267400.0|
|İstanbul(Ümraniye)-1852|710280.0|
|İstanbul(Üsküdar)-1708|531825.0|
|İstanbul(Zeytinburnu)-1739|293574.0|
|||
