,İşgücü,,İşgücünde Olmayan,Bilinmeyen
Adalar,6.568,851,8.438,
Avcılar,77.143,13.89,96.231,2
Bağcılar,167.428,31.437,215.196,9
Bahçelievler,153.293,26.096,198.648,6
Bakırköy,77.497,9.412,96.395,2
Bayrampaşa,79.592,10.459,105.759,3
Beşiktaş,78.253,8.579,82.602,
Beykoz,74.314,10.264,81.649,
Beyoğlu,76.941,14.428,95.149,12
Eminönü,25.458,6.853,17.339,
Esenler,115.537,19.343,147.497,12
Eyüp,85.706,12.53,103.525,6
Fatih,127.298,21.784,185.945,4
Gaziosmanpaşa,251.961,33.602,276.643,23
Güngören,87.721,13.912,114.285,6
Kadıköy,228.469,34.164,305.129,13
Kağıthane,116.224,18.778,133.003,8
Kartal,146.226,19.523,152.549,6
Küçükçekmece,190.013,33.882,232.19,5
Maltepe,119.262,20.058,151.286,4
Pendik,110.893,22.153,163.334,6
Sarıyer,91.1,12.086,95.158,5
Şişli,103.351,14.192,111.825,2
Tuzla,42.589,5.95,46.476,1
Ümraniye,218.359,28.837,214.005,16
Üsküdar,160.129,25.584,216.288,8
Zeytinburnu,84.278,13.351,97.724,7
Büyükçekmece,209.008,9.522,78.601,1
Çatalca,49.058,1.426,15.643,
Silivri,56.133,3.009,27.438,
Sultanbeyli,43.089,9.337,67.668,2
Şile,18.509,549,8.149,
